<?xml version="1.0" standalone="no"?>
<!DOCTYPE svg PUBLIC "-//W3C//DTD SVG 1.1//EN" "http://www.w3.org/Graphics/SVG/1.1/DTD/svg11.dtd" >
<!--
2019-2-16: Created with FontForge (http://fontforge.org)
-->
<svg xmlns="http://www.w3.org/2000/svg" xmlns:xlink="http://www.w3.org/1999/xlink" version="1.1">
<metadata>
Created by FontForge 20170731 at Sat Feb 16 12:30:43 2019
 By root

</metadata>
<defs>
<font id="Flaticon" horiz-adv-x="512" >
  <font-face 
    font-family="Flaticon"
    font-weight="400"
    font-stretch="normal"
    units-per-em="512"
    panose-1="2 0 5 3 0 0 0 0 0 0"
    ascent="448"
    descent="-64"
    bbox="-0.000251174 -64.001 512.001 448.001"
    underline-thickness="25.6"
    underline-position="-51.2"
    unicode-range="U+0020-F10D"
  />
    <missing-glyph />
    <glyph glyph-name="space" unicode=" " horiz-adv-x="200" 
 />
    <glyph glyph-name="004-sort" unicode="&#xf103;" 
d="M501.214 -42.668c5.97461 0 10.667 -4.7998 10.668 -10.666c0 -5.86719 -4.7998 -10.667 -10.667 -10.667h-266.66c-5.86621 0 -10.666 4.7998 -10.666 10.667c0 5.86621 4.7998 10.666 10.666 10.666h266.659zM501.214 106.662
c5.97461 0 10.667 -4.80078 10.667 -10.667c0 -5.86719 -4.7998 -10.667 -10.667 -10.667h-223.994c-5.86621 0 -10.666 4.7998 -10.666 10.667c0 5.86621 4.7998 10.667 10.666 10.667h223.994zM501.214 31.998c5.97461 0 10.667 -4.80176 10.668 -10.667
c0 -5.86719 -4.7998 -10.667 -10.667 -10.667h-266.66c-5.86621 0 -10.666 4.7998 -10.666 10.667c0 5.86621 4.7998 10.667 10.666 10.667h266.659zM501.214 298.657c5.97461 0 10.667 -4.80078 10.668 -10.667c0 -5.86719 -4.7998 -10.667 -10.667 -10.667h-266.66
c-5.86621 0 -10.666 4.7998 -10.666 10.667c0 5.86621 4.7998 10.667 10.666 10.667h266.659zM501.214 223.993c5.97461 0 10.667 -4.80078 10.668 -10.667c0 -5.86719 -4.7998 -10.667 -10.667 -10.667h-266.66c-5.86621 0 -10.666 4.7998 -10.666 10.667
c0 5.86621 4.7998 10.667 10.666 10.667h266.659zM277.22 426.653c-5.86523 0 -10.665 4.7998 -10.666 10.667c0 5.86719 4.7998 10.667 10.666 10.667h223.994c5.86719 0 10.667 -4.7998 10.667 -10.667s-4.7998 -10.667 -10.667 -10.667h-223.994zM501.214 373.322
c5.97461 0 10.667 -4.7998 10.668 -10.667c0 -5.86719 -4.7998 -10.667 -10.667 -10.667h-266.66c-5.86621 0 -10.666 4.7998 -10.666 10.667s4.7998 10.667 10.666 10.667h266.659zM131.197 18.2373c4.16016 3.94629 10.666 3.94629 14.8271 0
c4.16016 -4.05371 4.26562 -10.7734 0.212891 -15.04l-63.998 -63.998c-4.16016 -4.16016 -10.8799 -4.16016 -15.04 0l-63.998 63.998c-3.94727 4.16016 -3.94727 10.667 0 14.8262c4.05273 4.16016 10.7725 4.2666 15.0391 0.213867l45.7588 -45.7588v439.136
l-45.8652 -45.7588c-4.16016 -3.94727 -10.667 -3.94727 -14.8271 0c-4.15918 4.05273 -4.26562 10.7725 -0.212891 15.0391l63.999 63.999c4.15918 4.15918 10.9863 4.15918 15.0391 -0.107422l63.998 -63.998c3.94727 -4.16016 3.94727 -10.667 0 -14.8271
c-4.05273 -4.16016 -10.7725 -4.26562 -15.0391 -0.212891l-45.7588 45.8662v-439.242z" />
    <glyph glyph-name="009-shirt-1" unicode="&#xf108;" 
d="M235.439 404.027c-4.4668 0 -8.08398 3.62012 -8.08398 8.08398s3.61719 8.08398 8.08398 8.08398h41.7041c4.4668 0 8.08398 -3.61914 8.08398 -8.08398c0 -4.46387 -3.61719 -8.08398 -8.08398 -8.08398h-41.7041zM496.713 255.306
c0.950195 -3.91504 -1.12793 -7.93164 -4.86914 -9.41797l-79.4697 -31.5693v-56.498c0 -4.4668 -3.61816 -8.08398 -8.08398 -8.08398c-4.46484 0 -8.08398 3.61719 -8.08398 8.08398v61.9844v34.667v62.6445c0 1.47363 0.40332 2.9209 1.16602 4.18262l40.7686 67.4238
c-2.63281 2.11523 -5.68262 4.02441 -9.20996 5.52344c-16.2734 6.91602 -64.5234 25.335 -86.7383 33.7754c-5.37109 -47.5811 -42.3916 -85.7793 -85.6113 -85.7793c-43.3486 0 -80.4561 38.4238 -85.6553 86.2012c-21.6719 -8.23047 -71.3018 -27.1641 -87.8525 -34.1982
c-3.52734 -1.49902 -6.57812 -3.4082 -9.20996 -5.52344l40.7695 -67.4248c0.763672 -1.26172 1.16602 -2.70801 1.16602 -4.18262v-62.6445v-34.666v-234.77h54.7744c4.46582 0 8.08398 -3.61816 8.08398 -8.08398c0 -4.46387 -3.61816 -8.08398 -8.08398 -8.08398
h-54.7744v-16.6973h280.404v16.6973h-198.684c-4.46582 0 -8.08398 3.61914 -8.08398 8.08398s3.61816 8.08398 8.08398 8.08398h198.683v145.838c0 4.46387 3.61816 8.08398 8.08398 8.08398s8.08398 -3.61914 8.08398 -8.08398v-153.923v-32.8652
c0 -4.46582 -3.61816 -8.08398 -8.08398 -8.08398h-296.573c-4.46484 0 -8.08398 3.61816 -8.08398 8.08398v32.8652v237.366l-79.4697 31.5693c-3.74512 1.48828 -5.82324 5.50488 -4.87207 9.41992l8.0498 33.1641v0.000976562l19.7686 81.4453
c0.00488281 0.0195312 0.0146484 0.0615234 0.0283203 0.115234c0.0107422 0.0390625 0.0224609 0.0820312 0.0361328 0.136719c0.000976562 0.000976562 0.000976562 0.00195312 0.000976562 0.00292969c0.764648 2.92969 8.00098 28.0859 33.5752 38.9561
c21.6035 9.18164 95.6357 37.166 98.7764 38.3525c0.0664062 0.0253906 0.134766 0.0429688 0.201172 0.0664062c0.132812 0.0449219 0.262695 0.0898438 0.396484 0.128906c0.115234 0.0322266 0.230469 0.0605469 0.345703 0.0878906
c0.128906 0.03125 0.257812 0.0644531 0.389648 0.0888672c0.140625 0.0273438 0.28125 0.046875 0.422852 0.0654297c0.109375 0.0146484 0.21875 0.0341797 0.330078 0.0449219c0.257812 0.0253906 0.514648 0.0390625 0.773438 0.0390625h155.238h1.1582
c1.92676 0 3.69434 -0.676758 5.08398 -1.80176c15.2461 -5.77344 76.1377 -28.8906 95.3916 -37.0723c26.5996 -11.3047 33.3662 -38.0791 33.6426 -39.2129zM99.6309 231.714h-0.000976562v17.3809l-62.8154 26.3457l-4.15625 -17.1201zM99.6309 314.861l-36.7256 60.7363
c-2.9707 -5.27344 -4.07129 -9.44238 -4.09473 -9.5332l-18.1338 -74.7119l58.9541 -24.7246v48.2334zM256.58 358.411c31.9531 0 66.0371 29.1641 69.7773 73.4209h-139.553c3.73828 -44.2559 37.8223 -73.4209 69.7754 -73.4209zM412.372 314.861h-0.000976562v-48.2344
l58.9541 24.7246l-18.1436 74.748c-0.000976562 0.00390625 -0.00683594 0.0302734 -0.0146484 0.0585938c-0.00390625 0.0146484 -0.0117188 0.0410156 -0.0166016 0.0595703c-0.00878906 0.0322266 -0.0185547 0.0673828 -0.03125 0.112305
c-0.00683594 0.0224609 -0.015625 0.0537109 -0.0234375 0.0800781c-0.015625 0.0556641 -0.0341797 0.119141 -0.0556641 0.189453c-0.00878906 0.03125 -0.0205078 0.0683594 -0.03125 0.101562c-0.0253906 0.0869141 -0.0556641 0.180664 -0.0888672 0.286133
c-0.0078125 0.0234375 -0.015625 0.0498047 -0.0234375 0.0742188c-0.0439453 0.132812 -0.0898438 0.275391 -0.142578 0.432617c-0.00195312 0.00488281 -0.00390625 0.00976562 -0.00488281 0.0146484c-0.55957 1.66016 -1.70508 4.63867 -3.65039 8.09082z
M412.372 231.714l66.9707 26.6055l-4.1543 17.1211l-62.8164 -26.3457v-17.3809z" />
    <glyph glyph-name="001-2-squares" unicode="&#xf100;" 
d="M493.536 354.297c10.1758 0 18.4551 -8.28125 18.4648 -18.4639v-188.279c0 -10.1855 -8.28418 -18.4629 -18.4639 -18.4629h-146.171v-80.9189c0 -10.1885 -8.27539 -18.4688 -18.4639 -18.4688h-310.438c-10.1836 0 -18.4648 8.28027 -18.4648 18.4688v188.279
c0 10.1797 8.28125 18.4609 18.4648 18.4609h146.167v80.9209c0 10.1826 8.28125 18.4639 18.4639 18.4639h310.44zM329.258 48.1719v188.279l-310.787 0.354492l-0.356445 -188.634l310.787 -0.360352c0.200195 0 0.356445 0.165039 0.356445 0.360352zM493.884 147.554
h-0.00488281v188.279l-310.788 0.356445l-0.151367 -81.2773h145.955c10.1807 0 18.4688 -8.28125 18.4688 -18.4609v-89.0869l146.162 -0.165039c0.201172 0 0.358398 0.15918 0.358398 0.354492z" />
    <glyph glyph-name="006-fashion" unicode="&#xf105;" 
d="M509.581 263.902c3.22363 -3.22363 3.22363 -8.45215 0 -11.6768l-66.0635 -66.0645c-3.22461 -3.22363 -8.45215 -3.22363 -11.6768 0l-18.9355 18.9365v-194.772h-0.0742188c0.0273438 -2.18164 -0.816406 -4.2832 -2.3457 -5.83887l-66.0635 -66.0635
c-1.54883 -1.54883 -3.64844 -2.41992 -5.83887 -2.41992h-297.288c-13.1299 -0.0371094 -25.4912 6.19141 -33.2744 16.7666c-13.4746 18.3115 -9.55469 44.0801 8.75684 57.5557c-3.40625 2.48828 -6.40723 5.48926 -8.89648 8.89551
c-13.3301 18.2432 -9.34668 43.8379 8.89648 57.167c-10.5762 7.78223 -16.8057 20.1436 -16.7666 33.2754c0.0654297 22.7344 18.5488 41.1133 41.2842 41.0469h57.8066v54.3877l-18.9355 -18.9365c-3.22559 -3.22363 -8.45215 -3.22363 -11.6777 0l-66.0635 66.0645
c-3.22363 3.22461 -3.22363 8.45215 0 11.6768l82.5801 82.5801c1.1875 1.18457 2.70801 1.97949 4.36035 2.2793l90.8379 16.5156c2.40918 0.469727 4.90234 -0.183594 6.77148 -1.77539c1.87988 -1.57031 2.96582 -3.89258 2.96484 -6.3418
c0.0234375 -2.62402 0.258789 -5.24219 0.701172 -7.8291l57.1045 14.2783v10.0664c0 4.56055 3.69727 8.25781 8.25781 8.25781c13.6826 0 24.7744 11.0918 24.7744 24.7744s-11.0918 24.7744 -24.7744 24.7744s-24.7734 -11.0918 -24.7734 -24.7744h-16.5166
c0.00390625 19.6182 13.8105 36.5244 33.0322 40.4473c22.3428 4.56055 44.1533 -9.85449 48.7139 -32.1973c4.56055 -22.3438 -9.85449 -44.1533 -32.1982 -48.7139v-2.64258l57.1045 -14.2705c0.442383 2.58691 0.677734 5.20508 0.702148 7.8291
c0 0.493164 0.0439453 0.985352 0.132812 1.4707c0.816406 4.4873 5.11621 7.46289 9.60352 6.64648l90.8379 -16.5156c1.65137 -0.299805 3.17188 -1.09473 4.35938 -2.2793zM256.003 348.654l-60.0518 -15.0127c12.4463 -21.2158 35.4648 -33.9629 60.0518 -33.2559
c24.5869 -0.707031 47.6055 12.04 60.0527 33.2559zM16.5215 109.42c0 -13.6816 11.0908 -24.7734 24.7734 -24.7734h181.676c13.6826 0 24.7744 11.0908 24.7744 24.7734s-11.0918 24.7744 -24.7744 24.7744h-181.676c-13.6826 0 -24.7734 -11.0918 -24.7734 -24.7744z
M16.5215 43.3564c0 -13.6816 11.0908 -24.7744 24.7734 -24.7744h181.676c13.6826 0 24.7744 11.0918 24.7744 24.7744c0 13.6816 -11.0918 24.7734 -24.7744 24.7734h-181.676c-13.6826 0 -24.7734 -11.0918 -24.7734 -24.7734zM222.971 -47.4824
c13.6826 0 24.7744 11.0918 24.7744 24.7744s-11.0918 24.7744 -24.7744 24.7744h-181.676c-13.6826 0 -24.7734 -11.0918 -24.7734 -24.7744s11.0908 -24.7744 24.7734 -24.7744h165.16h16.5156zM346.841 -35.8047l37.8711 37.8711h-37.8711v-37.8711zM437.679 203.677
l54.3877 54.3877l-74.9502 74.916l-79.2764 14.4102c-5.40039 -35.8066 -40.0518 -63.5205 -81.8535 -63.5205s-76.4521 27.7139 -81.8525 63.5205l-79.2773 -14.4102l-74.916 -74.916l54.3867 -54.3877l51.9678 51.9678l11.6768 -11.6768l-22.3545 -22.3545v-70.9033
h107.354c13.1455 0.0507812 25.5244 -6.17871 33.3164 -16.7666c13.4756 -18.3115 9.55566 -44.0801 -8.75684 -57.5557c3.40723 -2.48828 6.4082 -5.48926 8.89746 -8.89551c13.3291 -18.2441 9.3457 -43.8389 -8.89746 -57.168
c0.305664 -0.22168 0.607422 -0.448242 0.905273 -0.678711c17.8057 -13.7451 21.0977 -39.3213 7.35254 -57.1279h74.5371v57.8066c0 4.56055 3.69727 8.25781 8.25781 8.25781h57.8057v203.031l-22.3545 22.3545l11.6777 11.6768zM33.0371 101.162v16.5156h198.192
v-16.5156h-198.192zM33.0371 35.0977v16.5166h189.934v-16.5166h-189.934zM33.0371 -30.9658v16.5156h189.934v-16.5156h-189.934z" />
    <glyph glyph-name="013-rating" unicode="&#xf10c;" 
d="M468.151 290.142c24.1787 0 43.8496 -19.6709 43.8486 -43.8486v-49.7168c0 -4.25195 -3.44531 -7.69629 -7.69727 -7.69629h-118.434c-4.25195 0 -7.69727 3.44434 -7.69727 7.69629s3.44531 7.69727 7.69727 7.69727h110.737v42.0195
c0 15.6904 -12.7666 28.4561 -28.4561 28.4561h-29.2559c-4.25195 0 -7.69629 3.44434 -7.69629 7.69629v24.8809c0 2.67578 1.36523 5.0332 3.43945 6.41211l14.0088 15.4297c4.40527 4.84961 6.83105 11.1309 6.83105 17.6836v35.1309
c0 16.0771 -13.0801 29.1562 -29.1562 29.1562h-20.4922c-16.0771 0 -29.1562 -13.0791 -29.1562 -29.1562v-35.1309c0 -6.55273 2.4248 -12.834 6.83008 -17.6836l14.0078 -15.4268c2.0752 -1.37988 3.44238 -3.7373 3.44238 -6.41504v-24.8809
c0 -4.25195 -3.44531 -7.69629 -7.69727 -7.69629h-29.2549c-14.041 0 -25.7314 -10.2256 -28.0361 -23.6172c15.9277 -7.93652 26.9004 -24.3838 26.9004 -43.3555v-55.9951c0 -4.25195 -3.44434 -7.69727 -7.69629 -7.69727h-198.736
c-4.25098 0 -7.69727 3.44531 -7.69727 7.69727v55.9951c0 19.1182 11.1377 35.6787 27.2646 43.542c-2.38086 13.3018 -14.0264 23.4307 -28.002 23.4307h-29.2549c-4.25098 0 -7.69727 3.44434 -7.69727 7.69629v24.8809c0 2.67578 1.36621 5.0332 3.43945 6.41211
l14.0098 15.4297c4.40527 4.84961 6.83105 11.1309 6.83105 17.6836v35.1309c0 16.0771 -13.0801 29.1562 -29.1572 29.1562h-20.4922c-16.0762 0 -29.1553 -13.0791 -29.1553 -29.1562v-35.1318c0 -6.55273 2.42578 -12.833 6.83105 -17.6836l14.0088 -15.4287
c2.07422 -1.37891 3.44043 -3.73633 3.44043 -6.41309v-24.8809c0 -4.25195 -3.44531 -7.69629 -7.69629 -7.69629h-29.2559c-15.6904 0 -28.4561 -12.7666 -28.4561 -28.4561v-42.0195h112.062c4.25098 0 7.69727 -3.44531 7.69727 -7.69727
s-3.44629 -7.69629 -7.69727 -7.69629h-119.758c-4.25098 0 -7.69727 3.44434 -7.69727 7.69629v49.7168c0 24.1787 19.6709 43.8496 43.8496 43.8496h21.5586v13.8623l-13.4521 14.8145c-6.9834 7.68945 -10.8281 17.6455 -10.8281 28.0332v35.1309
c0 24.5645 19.9854 44.5508 44.5498 44.5508h20.4902c24.5654 0 44.5518 -19.9854 44.5518 -44.5508v-35.1309c0 -10.3877 -3.8457 -20.3428 -10.8281 -28.0332l-13.4512 -14.8135v-13.8633h21.5576c20.9277 0 38.4668 -14.7393 42.8086 -34.3799
c2.07715 0.273438 4.19043 0.428711 6.3418 0.428711h25.252v16.959l-15.4023 16.9619c-7.7002 8.4834 -11.9424 19.4648 -11.9424 30.9209v39.5674c0 27.1309 22.0713 49.2031 49.2041 49.2031c4.25098 0 7.69629 -3.44434 7.69629 -7.69727
c0 -4.25195 -3.44531 -7.69629 -7.69629 -7.69629c-18.6445 0 -33.8105 -15.167 -33.8105 -33.8096v-39.5664c0 -7.62207 2.82324 -14.9287 7.94727 -20.5713l15.8623 -17.4688c2.12793 -1.36914 3.53809 -3.75977 3.53809 -6.47852v-28.0225
c0 -4.25195 -3.44629 -7.69629 -7.69727 -7.69629h-32.9492c-3.38379 0 -6.65234 -0.515625 -9.72949 -1.46484c-0.532227 -0.25293 -1.09668 -0.449219 -1.68848 -0.573242c-12.5957 -4.6582 -21.6025 -16.7881 -21.6025 -30.9844v-48.2979h183.344v48.2979
c0 18.208 -14.8145 33.0215 -33.0215 33.0215h-32.9482c-4.25195 0 -7.69727 3.44434 -7.69727 7.69629v28.0225c0 2.71973 1.41016 5.10938 3.53809 6.47754l15.8623 17.4697c5.12207 5.64258 7.94434 12.9482 7.94434 20.5713v39.5674
c0 18.6436 -15.167 33.8096 -33.8096 33.8096c-4.25195 0 -7.69727 3.44434 -7.69727 7.69629c0 4.25293 3.44531 7.69727 7.69727 7.69727c27.1309 0 49.2041 -22.0713 49.2041 -49.2031v-39.5693c0 -11.457 -4.24219 -22.4375 -11.9434 -30.9199l-15.4043 -16.9629
v-16.958h25.252c2.28418 0 4.52832 -0.169922 6.72949 -0.477539c4.32422 19.666 21.877 34.4297 42.8213 34.4297h21.5576v13.8613l-13.4531 14.8154c-6.98047 7.68945 -10.8271 17.6455 -10.8271 28.0332v35.1309c0 24.5645 19.9854 44.5508 44.5508 44.5508h20.4922
c24.5645 0 44.5508 -19.9854 44.5508 -44.5508v-35.1309c0 -10.3877 -3.84473 -20.3428 -10.8281 -28.0332l-13.4512 -14.8135v-13.8633h21.5586zM333.406 46.5332c0.890625 -2.73828 0.178711 -5.74316 -1.85059 -7.79102l-29.958 -30.2969l6.42969 -42.1201
c0.43457 -2.8457 -0.754883 -5.69727 -3.08496 -7.3877c-2.32715 -1.69434 -5.40625 -1.94434 -7.97852 -0.651367l-38.0732 19.1299l-38.0732 -19.1299c-1.0918 -0.548828 -2.27637 -0.820312 -3.4541 -0.820312c-1.59668 0 -3.18457 0.49707 -4.52441 1.47168
c-2.33008 1.69043 -3.51953 4.54199 -3.08594 7.3877l6.42969 42.1201l-29.958 30.2969c-2.02441 2.04785 -2.7373 5.05273 -1.84766 7.79102c0.890625 2.73926 3.2334 4.75098 6.07422 5.21777l42.0459 6.90234l19.5576 37.8564
c1.32129 2.55859 3.95898 4.16504 6.83789 4.16504s5.5166 -1.6084 6.83789 -4.16504l19.5566 -37.8564l42.0469 -6.90234c2.8418 -0.466797 5.18457 -2.47949 6.07227 -5.21777zM287.937 16.5205l22.1992 22.4541l-31.1602 5.11328
c-2.40137 0.395508 -4.47363 1.90234 -5.59082 4.06348l-14.4932 28.0547l-14.4941 -28.0547c-1.11621 -2.16113 -3.19043 -3.66797 -5.59082 -4.06348l-31.1602 -5.11328l22.2041 -22.4541c1.71094 -1.72949 2.50293 -4.16699 2.13574 -6.57324l-4.76367 -31.2139
l28.2158 14.1758c2.17383 1.0918 4.73633 1.0918 6.91113 0l28.2158 -14.1758l-4.76465 31.2139c-0.366211 2.4043 0.424805 4.8418 2.13574 6.57324zM501.895 103.13c0.890625 -2.7373 0.178711 -5.74316 -1.84961 -7.79102l-29.959 -30.2969l6.42969 -42.1211
c0.43457 -2.8457 -0.754883 -5.69629 -3.08496 -7.3877c-1.33887 -0.974609 -2.92676 -1.4707 -4.52441 -1.4707c-1.17871 0 -2.3623 0.270508 -3.4541 0.819336l-38.0732 19.1299l-38.0732 -19.1299c-2.57129 -1.29395 -5.64844 -1.04102 -7.97852 0.651367
c-2.33008 1.69141 -3.51953 4.54199 -3.08496 7.3877l6.42969 42.1211l-29.959 30.2969c-2.02539 2.04785 -2.7373 5.05371 -1.84766 7.79102c0.890625 2.73926 3.2334 4.75098 6.07422 5.21875l42.0469 6.90137l19.5576 37.8564
c1.32129 2.55859 3.95801 4.16504 6.83789 4.16504c2.87891 0 5.5166 -1.6084 6.83789 -4.16504l19.5586 -37.8564l42.0459 -6.90137c2.83984 -0.467773 5.18066 -2.48047 6.07031 -5.21875zM456.425 73.1162l22.1992 22.4531l-31.1592 5.11426
c-2.40137 0.394531 -4.47363 1.90137 -5.59082 4.0625l-14.4941 28.0557l-14.4932 -28.0557c-1.11621 -2.16113 -3.18848 -3.66797 -5.59082 -4.0625l-31.1602 -5.11426l22.2031 -22.4531c1.71094 -1.72852 2.50195 -4.16699 2.13574 -6.57324l-4.76465 -31.2148
l28.2158 14.1758c1.08691 0.545898 2.27148 0.820312 3.45605 0.820312s2.36816 -0.274414 3.45605 -0.820312l28.2158 -14.1758l-4.76465 31.2148c-0.366211 2.4043 0.424805 4.84375 2.13574 6.57324zM164.919 103.129
c0.890625 -2.7373 0.176758 -5.74219 -1.85059 -7.79102l-29.958 -30.2969l6.42871 -42.1211c0.43457 -2.8457 -0.754883 -5.69629 -3.08496 -7.3877c-1.33887 -0.974609 -2.92773 -1.4707 -4.52441 -1.4707c-1.17871 0 -2.3623 0.270508 -3.4541 0.819336l-38.0723 19.1299
l-38.0732 -19.1299c-2.57227 -1.29395 -5.65039 -1.04102 -7.97852 0.651367c-2.33008 1.69141 -3.51953 4.54199 -3.08594 7.3877l6.42969 42.1211l-29.959 30.2969c-2.02441 2.04785 -2.7373 5.05371 -1.84766 7.79102c0.890625 2.73926 3.2334 4.75098 6.07422 5.21875
l42.0459 6.90137l19.5557 37.8574c1.32129 2.55859 3.95898 4.16504 6.83887 4.16504s5.5166 -1.6084 6.83887 -4.16504l19.5566 -37.8564l42.0469 -6.90137c2.84082 -0.467773 5.18457 -2.48047 6.07324 -5.21973zM119.447 73.1162l22.2041 22.4531l-31.1602 5.11426
c-2.40137 0.394531 -4.47461 1.90137 -5.5918 4.0625l-14.4932 28.0557l-14.4932 -28.0557c-1.11719 -2.16113 -3.19141 -3.66797 -5.5918 -4.0625l-31.1602 -5.11426l22.2002 -22.4531c1.71094 -1.72852 2.50293 -4.16699 2.13574 -6.57324l-4.76465 -31.2148
l28.2158 14.1758c1.08691 0.545898 2.27051 0.820312 3.45605 0.820312c1.18457 0 2.36914 -0.273438 3.45605 -0.820312l28.2148 -14.1758l-4.76367 31.2148c-0.367188 2.4043 0.424805 4.84375 2.13574 6.57324z" />
    <glyph glyph-name="005-clothes" unicode="&#xf104;" 
d="M220.034 181.554c4.98633 0 9.0293 -4.04199 9.0293 -9.02832c0 -4.98535 -4.04199 -9.02832 -9.02832 -9.02832h-64.2461c-4.98633 0 -9.02832 4.04297 -9.02832 9.02832v143.502l-19.4287 -9.71387c-1.29102 -0.644531 -2.66992 -0.953125 -4.03223 -0.953125
c-2.85547 0 -5.63965 1.35645 -7.38184 3.82227l-43.334 61.3887c-2.71484 3.84473 -2.01855 9.12891 1.5957 12.1416l75.7891 63.1562c1.57227 1.32812 3.60059 2.13086 5.81836 2.13086h200.426c2.21484 0 4.24121 -0.800781 5.8125 -2.125l75.7969 -63.1621
c3.61523 -3.0127 4.30957 -8.29688 1.5957 -12.1416l-43.333 -61.3887c-1.74219 -2.4668 -4.52637 -3.82227 -7.38184 -3.82227c-1.36426 0 -2.74316 0.307617 -4.03223 0.953125l-19.4307 9.71387v-24.3359c0 -4.98633 -4.04199 -9.02832 -9.02734 -9.02832
c-4.98633 0 -9.02832 4.04199 -9.02832 9.02832v138.252h-34.1133c-4.35059 -27.584 -28.2832 -48.7471 -57.0703 -48.7471c-28.7861 0 -52.7197 21.1631 -57.0684 48.7471h-34.1172v-248.39h55.2188zM385.806 325.934l34.0537 48.2422l-54.6191 45.5156v-83.4756z
M256.001 399.253c18.7969 0 34.5742 13.126 38.6758 30.6904h-77.3506c4.10059 -17.5635 19.8779 -30.6904 38.6748 -30.6904zM126.194 325.934l20.5654 10.2822v83.4756l-54.6191 -45.5156zM430.573 272.176c4.98633 0 9.02832 -4.04102 9.02539 -9.02832v-318.12
c0 -4.98633 -4.04199 -9.02832 -9.02734 -9.02832h-69.5186c-4.79102 0 -8.74805 3.74316 -9.01367 8.52734l-12.2275 219.982l-12.2275 -219.982c-0.265625 -4.78516 -4.22266 -8.52734 -9.01367 -8.52734h-69.5186c-4.98535 0 -9.02832 4.04199 -9.02832 9.02832v318.12
c0 4.98633 4.04297 9.02832 9.02832 9.02832h181.521zM421.545 233.915v20.2051h-28.4688v-20.2051h28.4688zM304.605 233.915h70.4141v20.2051h-70.4141v-20.2051zM286.549 254.12h-28.4688v-20.2051h28.4688v20.2051zM369.596 -45.9434h51.9502v261.802h-163.465v-261.802
h51.9502l12.2715 220.764c0.264648 4.78418 4.22266 8.52734 9.01367 8.52734h16.9932c4.79102 0 8.74805 -3.74414 9.01367 -8.52734z" />
    <glyph glyph-name="010-user" unicode="&#xf109;" 
d="M256 448c132.233 -0.0419922 242.675 -100.787 254.833 -232.463c12.1582 -131.675 -77.9707 -250.938 -207.958 -275.195l-2.6875 -0.475586c-6.99121 -1.2207 -14.0371 -2.19531 -21.1455 -2.83301c-7.64648 -0.6875 -15.3291 -1.0332 -23.042 -1.0332
c-141.384 0 -256 114.616 -256 256s114.616 256 256 256zM235.434 -46.0293c6.8125 -0.586914 13.6953 -0.845703 20.6084 -0.845703c6.91211 0 13.7412 0.316406 20.5664 0.904297h0.604492c6.6416 0.591797 13.2373 1.47949 19.7744 2.62109
c0.367188 0.0576172 0.733398 0.103516 1.10059 0.170898c6.3916 1.14551 12.7119 2.57031 18.9746 4.22461l1.4707 0.366211c6.13379 1.66309 12.1914 3.60059 18.167 5.74219c0.537109 0.204102 1.125 0.391602 1.70801 0.608398
c5.87109 2.1582 11.6455 4.57031 17.3291 7.19141c0.650391 0.275391 1.2959 0.554688 1.9375 0.854492c5.5957 2.6123 11.084 5.5127 16.4795 8.58301c0.662109 0.383789 1.3457 0.75 2.0127 1.1377c5.32422 3.11621 10.5244 6.43359 15.5996 9.95801
c0.662109 0.458984 1.33789 0.904297 2.00391 1.37109c5.0293 3.55859 9.92578 7.3252 14.6963 11.3086l1.13281 0.945312v71.9541c-0.0625 51.8174 -42.0498 93.8047 -93.8662 93.8672h-119.467c-51.8164 -0.0625 -93.8037 -42.0498 -93.8662 -93.8672v-71.9453
l1.28711 -1.125c4.67871 -3.88379 9.4834 -7.5957 14.4121 -11.0918c0.754883 -0.529297 1.52148 -1.04199 2.2793 -1.57129c5.0166 -3.45801 10.1299 -6.7334 15.3623 -9.78711c0.75 -0.420898 1.50879 -0.845703 2.25879 -1.27051
c5.31641 -3.03418 10.7373 -5.91699 16.2666 -8.47559c0.700195 -0.333008 1.40039 -0.632812 2.09961 -0.945312c5.6377 -2.5957 11.3633 -4.99609 17.1924 -7.1377c0.616211 -0.229492 1.2373 -0.424805 1.85352 -0.645508
c5.94629 -2.13379 11.9795 -4.05469 18.0791 -5.70898l1.5127 -0.387695c6.25488 -1.65332 12.5713 -3.07031 18.9541 -4.21191c0.367188 -0.0712891 0.742188 -0.112305 1.11719 -0.179688c6.5293 -1.13672 13.1162 -2.02441 19.7539 -2.6123h0.604492zM426.667 24.9336
v0.0078125c91.9082 93.8047 90.8828 244.2 -2.29199 336.746c-93.1748 92.542 -243.575 92.542 -336.75 0c-93.1748 -92.5459 -94.2002 -242.941 -2.29199 -336.746v56.125c0.0712891 61.2373 49.6963 110.862 110.934 110.934h119.467
c61.2373 -0.0712891 110.862 -49.6963 110.934 -110.934v-56.1328zM426.667 24.9336zM256 379.733c47.1084 -0.0498047 85.2832 -38.2246 85.333 -85.333c0 -47.1299 -38.2041 -85.334 -85.333 -85.334s-85.333 38.2041 -85.333 85.334
c0 47.1289 38.2041 85.333 85.333 85.333zM256 226.134c37.6836 0.0410156 68.2246 30.583 68.2666 68.2666c0 37.7041 -30.5625 68.2666 -68.2666 68.2666s-68.2666 -30.5625 -68.2666 -68.2666s30.5625 -68.2666 68.2666 -68.2666zM256 226.134z" />
    <glyph glyph-name="011-order-1" unicode="&#xf10a;" 
d="M69.4238 161.643c4.79199 0 8.67773 -3.88574 8.67773 -8.67773v-34.709c0 -4.79297 -3.88574 -8.67773 -8.67773 -8.67773s-8.67773 3.88477 -8.67773 8.67773v34.709c0 4.79199 3.88574 8.67773 8.67773 8.67773zM104.134 144.288
c4.79199 0 8.67676 -3.88574 8.67676 -8.67773v-34.71c0 -4.79199 -3.88477 -8.67773 -8.67676 -8.67773s-8.67773 3.88574 -8.67773 8.67773v34.71c0 4.79199 3.88574 8.67773 8.67773 8.67773zM420.634 97.7158c19.1338 -12.9014 30.6055 -34.4678 30.6104 -57.5439
c0.00683594 -38.3398 -31.0674 -69.4248 -69.4062 -69.4326c-38.3398 -0.0078125 -69.4258 31.0674 -69.4326 69.4062c-0.0078125 38.3389 31.0674 69.4248 69.4062 69.4326c4.79199 0 8.67773 -3.88574 8.67773 -8.67773s-3.88574 -8.67773 -8.67773 -8.67773
c-17.3135 -0.0078125 -33.4922 -8.62402 -43.1621 -22.9863c-16.0596 -23.8506 -9.74219 -56.2061 14.1104 -72.2656c23.8506 -16.0596 56.2051 -9.74219 72.2656 14.1094c16.0586 23.8516 9.74219 56.2061 -14.1104 72.2656
c-3.73535 2.68457 -4.72559 7.81738 -2.25879 11.7002c2.57031 4.04395 7.93359 5.24023 11.9775 2.66992zM481.853 68.9805c15.9434 -55.2295 -15.9043 -112.927 -71.1348 -128.869c-55.2305 -15.9443 -112.927 15.9043 -128.87 71.1338l-51.8135 -30.6221
c-0.225586 -0.130859 -0.46875 -0.191406 -0.694336 -0.295898c-0.239258 -0.118164 -0.485352 -0.22168 -0.737305 -0.311523c-1.91016 -0.798828 -4.05957 -0.798828 -5.96973 0c-0.249023 0.0898438 -0.493164 0.193359 -0.729492 0.311523
c-0.239258 0.0859375 -0.473633 0.18457 -0.702148 0.295898l-190.904 112.807c-2.64062 1.56152 -4.26172 4.40234 -4.25977 7.4707v225.613c0 0.260742 0.0947266 0.495117 0.121094 0.754883c0.0263672 0.260742 0.104492 0.503906 0.104492 0.763672
c0.15918 0.996094 0.491211 1.95605 0.980469 2.83789v0.0605469c0.0341797 0.0605469 0.138672 0.0957031 0.138672 0.15625c0.515625 0.807617 1.16406 1.52344 1.91797 2.11719c0.172852 0.138672 0.337891 0.277344 0.511719 0.399414
c0.173828 0.121094 0.303711 0.277344 0.485352 0.381836l190.904 112.807c2.72363 1.61035 6.1084 1.61035 8.83301 0l190.903 -112.807c2.6416 -1.5625 4.26172 -4.40332 4.26074 -7.47168v-191.771c27.5596 -12.624 48.2471 -36.6367 56.6543 -65.7617zM225.617 429.246
l-173.844 -102.732l45.1318 -26.666l80.917 47.8213c4.12793 2.43945 9.45312 1.07031 11.8926 -3.05859c2.43945 -4.12793 1.06934 -9.45312 -3.05859 -11.8926l-72.6914 -42.9531l45.123 -26.666l173.844 102.698l-45.123 26.665l-75.1377 -44.3672
c-4.12793 -2.43945 -9.45312 -1.06934 -11.8926 3.05859s-1.06934 9.45312 3.05859 11.8926l66.9033 39.5342zM150.41 248.062l-44.8271 26.4922v-57.9395l44.8271 -26.4922v57.9395zM281.111 66.9824c14.6064 55.3857 71.3477 88.4414 126.732 73.834v180.751
l-57.8438 34.1807l-173.844 -102.732l49.4609 -29.2344l157.114 92.8486c4.12598 2.43945 9.44824 1.07227 11.8877 -3.05371c2.43945 -4.12695 1.07227 -9.44922 -3.05469 -11.8887l-157.27 -92.9355v-142.562c0 -4.79199 -3.88477 -8.67676 -8.67773 -8.67676
c-4.79199 0 -8.67676 3.88477 -8.67676 8.67676v142.562l-49.1748 29.0615v-62.9033c0 -4.79199 -3.88574 -8.67773 -8.67773 -8.67773c-1.55371 0.00292969 -3.07812 0.418945 -4.41699 1.20703l-62.1826 36.749c-2.64453 1.5625 -4.26367 4.40723 -4.26074 7.47949
v73.1416l-44.8359 26.4922v-205.455l173.549 -102.55v28.1846c0 4.79199 3.88477 8.67676 8.67676 8.67676c4.79297 0 8.67773 -3.88477 8.67773 -8.67676v-28.1846l43.96 25.9893c-0.379883 3.61133 -0.570312 7.24121 -0.572266 10.8721
c-0.0332031 9.05273 1.12012 18.0713 3.42871 26.8242zM381.812 -46.6162c47.9023 0.0537109 86.7217 38.8721 86.7744 86.7744c0 47.9248 -38.8506 86.7744 -86.7744 86.7744c-47.9248 0 -86.7744 -38.8496 -86.7744 -86.7744
c0 -47.9238 38.8496 -86.7744 86.7744 -86.7744zM413.766 63.6484c3.44727 -3.3291 3.54297 -8.82324 0.212891 -12.2705l-39.0479 -39.0479c-3.38867 -3.3877 -8.88184 -3.3877 -12.2705 0l-13.0156 13.0156c-3.24902 3.36328 -3.24902 8.69531 0 12.0576
c3.3291 3.44727 8.82227 3.54297 12.2695 0.212891l6.88086 -6.88184l32.9141 32.9141c3.3623 3.24805 8.69434 3.24805 12.0566 0z" />
    <glyph glyph-name="008-shirt" unicode="&#xf107;" 
d="M278.875 379.733h54.458c23.5547 -0.0292969 42.6377 -19.1123 42.667 -42.667v-358.399c-0.0292969 -23.5547 -19.1123 -42.6377 -42.667 -42.667h-290.133c-23.5547 0.0292969 -42.6377 19.1123 -42.667 42.667v358.399
c0.0292969 23.5547 19.1123 42.6377 42.667 42.667h54.458l31.8125 63.5205c0.0712891 0.137695 0.163086 0.204102 0.258789 0.367188c0.0917969 0.162109 0.0830078 0.257812 0.253906 0.512695c0.170898 0.257812 0.400391 0.470703 0.579102 0.682617
c0.178711 0.212891 0.341797 0.424805 0.529297 0.625c0.382812 0.391602 0.799805 0.75 1.24609 1.06738c0.162109 0.107422 0.299805 0.228516 0.461914 0.329102c1.2959 0.757812 2.7666 1.1582 4.2666 1.16211h102.4
c0.741211 -0.00878906 1.47949 -0.108398 2.19141 -0.308594c0.121094 -0.0371094 0.237305 -0.0791016 0.350586 -0.132812c0.595703 -0.174805 1.16602 -0.416992 1.70801 -0.720703c0.233398 -0.150391 0.461914 -0.3125 0.683594 -0.483398
c0.386719 -0.254883 0.75 -0.541992 1.09082 -0.854492c0.216797 -0.229492 0.416992 -0.466797 0.604492 -0.716797c0.191406 -0.195312 0.371094 -0.404297 0.538086 -0.625c0.103516 -0.149414 0.169922 -0.366211 0.25 -0.5
c0.0742188 -0.137695 0.1875 -0.233398 0.261719 -0.378906zM188.267 341.658l9.00391 21.0088h-18.0078zM224.763 383.471l-25.8877 -60.3037l36.5371 -24.3633l28.8008 72.0127l-24.1504 48.375zM226.521 430.934h-76.5078l21.9375 -51.2002h32.6328zM136.471 419.191
l-24.1494 -48.375l28.7666 -72.0127l36.5371 24.3633l-25.8545 60.3457zM17.5996 -21.333c0 -14.1377 11.4629 -25.6006 25.6006 -25.6006h136.533v350.992l-37.9297 -25.292c-2.1416 -1.42871 -4.8125 -1.81641 -7.27051 -1.05371
c-2.4541 0.761719 -4.4375 2.59082 -5.39551 4.97852l-31.9795 79.9756h-53.958c-14.1377 0 -25.6006 -11.4629 -25.6006 -25.6006v-358.399zM358.934 337.066c0 14.1377 -11.4629 25.6006 -25.6006 25.6006h-53.958l-31.9795 -79.9756
c-1.2998 -3.2373 -4.4375 -5.3623 -7.92871 -5.3584c-1.6875 0 -3.33301 0.5 -4.7373 1.43359l-37.9297 25.292v-350.992h136.533c14.1377 0 25.6006 11.4629 25.6006 25.6006v358.399zM358.934 337.066zM316.267 243.2c4.71289 0 8.5332 -3.82129 8.5332 -8.5332v-68.2666
c0 -14.1377 -11.4619 -25.6006 -25.5996 -25.6006h-34.1338c-14.1377 0 -25.5996 11.4629 -25.5996 25.6006v68.2666c0 4.71191 3.82031 8.5332 8.5332 8.5332h68.2666zM307.733 166.4v59.7334h-51.2002v-59.7334c0 -4.71289 3.82129 -8.53418 8.5332 -8.53418h34.1338
c4.71191 0 8.5332 3.82129 8.5332 8.53418zM307.733 166.4z" />
    <glyph glyph-name="002-tuxedo" unicode="&#xf101;" 
d="M243.477 168c5.51953 0 10 -4.48047 10 -10s-4.48047 -10 -10 -10c-5.52344 0 -10 4.48047 -10 10s4.47656 10 10 10zM243.477 168zM481.988 245.438c8.04297 -17.6836 5.04297 -38.625 -7.64844 -53.3477l-100.914 -116.992l19.9297 -127.555
c0.449219 -2.88672 -0.382812 -5.82422 -2.28516 -8.04688c-1.89844 -2.21875 -4.67188 -3.49609 -7.59375 -3.49609h-80c-25.4375 0 -47.7422 13.6406 -60 33.9883c-12.2578 -20.3477 -34.5664 -33.9883 -60 -33.9883h-80c-2.92188 0 -5.69922 1.27734 -7.60156 3.49609
c-1.89844 2.21875 -2.73047 5.16016 -2.28125 8.04688l19.9297 127.551l-100.91 116.996c-12.6953 14.7227 -15.6953 35.6641 -7.65234 53.3516l56.4297 124.129c4.39844 9.69922 11.6445 17.6094 20.9492 22.8594l96.2227 54.2812
c1.45312 0.820312 3.10547 1.25781 4.78906 1.28125c0.0390625 0 0.0820312 0.0078125 0.125 0.0078125h120c1.62891 0 3.39062 -0.433594 4.91016 -1.28906l96.2188 -54.2812c9.30859 -5.25391 16.5547 -13.1602 20.957 -22.8711zM314.531 333.527
c-1.53125 3.05859 -1.39062 6.6875 0.367188 9.62109l34.4883 57.4727l-39.3945 22.2227l-48.0586 -192.242l64.2812 64.2812c3.04297 3.04297 3.79297 7.67969 1.86719 11.5352zM243.477 239.23l37.1914 148.77h-74.3867zM172.051 343.145
c1.75781 -2.92969 1.89844 -6.55859 0.367188 -9.61719l-13.5469 -27.1094c-1.92969 -3.85547 -1.17969 -8.49219 1.86328 -11.5352l64.2812 -64.2812l-48.0586 192.238l-39.3945 -22.2227zM285.668 408l5 20h-94.3867l5 -20h84.3867zM459.191 205.152
c7.61719 8.83203 9.41797 21.3984 4.58984 32.0078l-56.4297 124.129c-2.64453 5.82812 -6.98828 10.5703 -12.5742 13.7227l-27.9688 15.7773l-31.9375 -53.2266l11.0977 -22.2031c5.78125 -11.5625 3.52734 -25.4766 -5.61328 -34.6211l-89.8125 -89.8086
c-1.79688 -1.80078 -4.36328 -2.92188 -7.04297 -2.92578c-0.0078125 0 -0.015625 -0.00390625 -0.0234375 -0.00390625h-0.00390625c-0.0078125 0 -0.015625 0.00390625 -0.0234375 0.00390625c-2.66797 0.00390625 -5.23047 1.10938 -7.04688 2.92578l-89.8086 89.8086
c-9.14062 9.14453 -11.3984 23.0586 -5.61328 34.625l11.0938 22.1992l-31.9375 53.2266l-27.9688 -15.7773c-5.58203 -3.15234 -9.92578 -7.89453 -12.5664 -13.7109l-56.4336 -124.141c-4.82812 -10.6133 -3.02344 -23.1758 4.58984 -32.0117l89.8164 -104.129
l5.75391 36.8242c-0.492188 2.625 -1.53125 8.16797 -2.93359 15.668l-53.5312 62.0664c-2.54688 2.95312 -3.14453 7.11719 -1.53125 10.668l30.6289 67.3906c1.80469 3.97266 5.98047 6.31641 10.3086 5.79297c4.32812 -0.527344 7.82031 -3.79688 8.625 -8.08594
c3.37891 -18.0312 25.4102 -135.496 28.4102 -151.496c0.207031 -1.12109 0.226562 -2.26562 0.0507812 -3.39453l-28.1953 -180.453h68.3164c27.5664 0 50 22.4297 50 50v114.5c0 5.52344 4.47656 10 10 10c5.51953 0 10 -4.47656 10 -10v-114.5
c0 -27.5703 22.4297 -50 50 -50h68.3125l-28.1914 180.453c-0.179688 1.12891 -0.160156 2.27734 0.0507812 3.39453c3.03516 16.1875 24.918 132.875 28.4102 151.496c0.804688 4.28906 4.29297 7.55859 8.625 8.08594c4.32812 0.519531 8.5 -1.82031 10.3047 -5.79297
l30.6289 -67.3906c1.61719 -3.55078 1.01953 -7.71484 -1.53125 -10.668l-53.5273 -62.0664c-1.40625 -7.5 -2.44531 -13.043 -2.9375 -15.668l5.75391 -36.8242zM373.895 192.641l26.8711 31.1562l-14.8867 32.75zM113.055 192.641l-11.9844 63.9062l-14.8828 -32.75z
M113.055 192.641zM323.477 88c5.51953 0 10 -4.47656 10 -10s-4.48047 -10 -10 -10h-40c-5.52344 0 -10 4.47656 -10 10s4.47656 10 10 10h40zM323.477 88zM203.477 88c5.51953 0 10 -4.47656 10 -10s-4.48047 -10 -10 -10h-40c-5.52344 0 -10 4.47656 -10 10
s4.47656 10 10 10h40zM203.477 88z" />
    <glyph glyph-name="014-email" unicode="&#xf10d;" 
d="M511.897 252.265c0.00878906 -0.178711 0.101562 -0.333008 0.102539 -0.511719v-290.148c-0.0117188 -5.42773 -1.76758 -10.708 -5.00879 -15.0615c-0.0527344 -0.0771484 -0.0605469 -0.154297 -0.120117 -0.239258s-0.162109 -0.111328 -0.230469 -0.196289
c-4.7998 -6.3418 -12.2871 -10.0791 -20.2422 -10.1035h-460.823c-7.92285 0.0341797 -15.3799 3.75293 -20.1738 10.0615c-0.0849609 0.09375 -0.212891 0.170898 -0.273438 0.239258c-0.0585938 0.0673828 -0.0673828 0.162109 -0.118164 0.239258
c-3.24121 4.35254 -4.99805 9.63281 -5.00977 15.0615v290.172c0 0.178711 0.101562 0.333008 0.101562 0.511719c0.0556641 0.580078 0.172852 1.15234 0.350586 1.70703c0.117188 0.50293 0.279297 0.995117 0.486328 1.46777
c0.238281 0.464844 0.524414 0.901367 0.852539 1.30664c0.329102 0.480469 0.709961 0.924805 1.13477 1.32324c0.136719 0.118164 0.196289 0.280273 0.341797 0.400391l82.043 63.7383v66.0605c0 14.1396 11.4619 25.6016 25.6016 25.6016h92.4805l37.0371 28.75
c9.14746 7.13477 21.9746 7.13477 31.1221 0l37.0293 -28.75h92.4805c14.1387 0 25.6016 -11.4629 25.6016 -25.6016v-66.0596l82.0684 -63.7383c0.145508 -0.119141 0.204102 -0.282227 0.341797 -0.400391c0.424805 -0.399414 0.805664 -0.842773 1.13477 -1.32324
c0.328125 -0.405273 0.614258 -0.842773 0.852539 -1.30664c0.206055 -0.473633 0.369141 -0.964844 0.486328 -1.46777c0.179688 -0.5625 0.296875 -1.14355 0.350586 -1.73242zM250.866 429.179l-19.6289 -15.2832h49.4961l-19.6875 15.2832
c-2.97949 2.36816 -7.2002 2.36816 -10.1797 0zM27.7256 -46.9287h456.522l-223.201 173.329c-2.98047 2.36426 -7.19824 2.36426 -10.1797 0zM494.933 -33.624h-0.00292969v272.381l-140.09 -108.78c-2.40527 -1.91113 -5.65234 -2.38086 -8.50098 -1.23145
c-2.84961 1.14844 -4.86035 3.74121 -5.2666 6.78613s0.857422 6.07324 3.30566 7.92871l142.316 110.512l-60.0342 46.6553v-65.9404c0 -4.71289 -3.82031 -8.53418 -8.53418 -8.53418c-4.71289 0 -8.5332 3.82031 -8.5332 8.53418v153.607
c0 4.71289 -3.82031 8.5332 -8.5332 8.5332h-290.147c-4.71387 0 -8.53418 -3.82031 -8.53418 -8.5332v-153.607c0 -4.71289 -3.82031 -8.53418 -8.5332 -8.53418c-4.71191 0 -8.5332 3.82031 -8.5332 8.53418v65.9404l-60.0352 -46.6553l142.07 -110.315
c3.72559 -2.88867 4.4043 -8.25098 1.51465 -11.9775c-2.88867 -3.72559 -8.25098 -4.4043 -11.9775 -1.51465l-139.843 108.593v-272.381l223.389 173.491c9.14941 7.12891 21.9727 7.12891 31.1221 0zM358.392 243.22
c0.0566406 -18.1426 -14.125 -33.1416 -32.2432 -34.1016c-18.1172 -0.958984 -33.8027 12.459 -35.6611 30.5059c-16.8857 -15.4932 -42.0088 -17.8799 -61.5098 -5.84277c-19.501 12.0361 -28.6279 35.5645 -22.3477 57.6035s26.4404 37.2207 49.3564 37.1699
c4.71289 0 8.5332 -3.82031 8.5332 -8.5332s-3.82031 -8.5332 -8.5332 -8.5332c-18.8525 0 -34.1348 -15.2832 -34.1348 -34.1348c0 -18.8525 15.2822 -34.1348 34.1348 -34.1348c18.8516 0 34.1348 15.2822 34.1348 34.1348c0 4.71289 3.82031 8.5332 8.5332 8.5332
s8.5332 -3.82031 8.5332 -8.5332v-34.1348c0 -9.42676 7.6416 -17.0684 17.0684 -17.0684c9.42578 0 17.0674 7.6416 17.0674 17.0684v34.1348c0 47.1299 -38.207 85.3369 -85.3369 85.3369c-47.1309 0 -85.3379 -38.207 -85.3379 -85.3369
c0 -47.1309 38.207 -85.3379 85.3379 -85.3379c4.71289 0 8.5332 -3.81934 8.5332 -8.5332c0 -4.71289 -3.82031 -8.5332 -8.5332 -8.5332c-56.5576 0 -102.405 45.8486 -102.405 102.405s45.8477 102.405 102.405 102.405c56.5566 0 102.405 -45.8486 102.405 -102.405
v-34.1348z" />
    <glyph glyph-name="012-analytics" unicode="&#xf10b;" 
d="M502 239.251c5.52344 0 10 -4.47754 10 -10v-283.251c0 -5.52246 -4.47656 -10 -10 -10h-472c-16.542 0 -30 13.458 -30 30v452c0 16.542 13.458 30 30 30h267.975c2.65234 0 5.19531 -1.05371 7.07129 -2.92871l96 -96.0029
c1.875 -1.87598 2.92871 -4.41895 2.92871 -7.07129v-132.997c0 -5.52246 -4.47656 -10 -10 -10c-5.52246 0 -10 4.47754 -10 10v122.997h-66c-16.542 0 -30 13.458 -30 30v66.0029h-257.975c-5.51367 0 -10 -4.48633 -10 -10v-452c0 -5.51367 4.48633 -10 10 -10h86v79.625
c0 5.52246 4.47656 10 10 10h64c5.52344 0 10 -4.47754 10 -10v-79.625h20v137c0 5.52246 4.47656 10 10 10h64c5.52344 0 10 -4.47754 10 -10v-137h20v207c0 5.52246 4.47656 10 10 10h64c5.52344 0 10 -4.47754 10 -10v-207h20v147.751c0 5.52246 4.47656 10 10 10
s10 -4.47754 10 -10v-147.751h22h22v263.251h-44v-40.5c0 -5.52246 -4.47656 -10 -10 -10s-10 4.47754 -10 10v50.5c0 5.52246 4.47656 10 10 10h64zM307.975 413.857v-51.8604c0 -5.51367 4.48535 -10 10 -10h51.8594zM180 -44v69.625h-44v-69.625h44zM284 -44v127h-44
v-127h44zM388 -44v197h-44v-197h44zM445.07 150.18c1.85938 -1.85938 2.92969 -4.43945 2.92969 -7.06934s-1.07031 -5.20996 -2.92969 -7.07031c-1.86035 -1.86035 -4.44043 -2.92969 -7.07031 -2.92969s-5.20996 1.07031 -7.07031 2.92969
c-1.85938 1.86035 -2.92969 4.44043 -2.92969 7.07031s1.07031 5.20996 2.92969 7.06934c1.86035 1.86914 4.44043 2.93066 7.07031 2.93066s5.20996 -1.06152 7.07031 -2.93066zM145.577 393.271c65.8496 0 119.423 -53.5732 119.423 -119.425
c0 -5.52148 -4.47656 -10 -10 -10h-17.9883c-4.99707 -46.0312 -44.0967 -81.9746 -91.4346 -81.9746c-50.7148 0 -91.9756 41.2598 -91.9756 91.9746c0 47.3379 35.9443 86.4385 81.9756 91.4355v17.9893c0 5.52148 4.47656 10 10 10zM145.577 201.873
c36.293 0 66.3984 27.0049 71.2822 61.9746h-71.2822c-5.52344 0 -10 4.47852 -10 10v71.2822c-34.9697 -4.88281 -61.9756 -34.9893 -61.9756 -71.2822c0 -39.6865 32.2881 -71.9746 71.9756 -71.9746zM155.577 283.847h88.9238
c-4.70215 46.8525 -42.0723 84.2236 -88.9238 88.9258v-88.9248v-0.000976562zM255 153.75c5.52344 0 10 -4.47754 10 -10s-4.47656 -10 -10 -10h-191c-5.52344 0 -10 4.47754 -10 10s4.47656 10 10 10h191zM128 105.5c5.52344 0 10 -4.47754 10 -10s-4.47656 -10 -10 -10
h-64c-5.52344 0 -10 4.47754 -10 10s4.47656 10 10 10h64zM185.15 102.57c1.85938 -1.86035 2.92969 -4.44043 2.92969 -7.07031s-1.07031 -5.20996 -2.92969 -7.06934c-1.86035 -1.86035 -4.44043 -2.93066 -7.07031 -2.93066
c-2.63965 0 -5.20996 1.07129 -7.07031 2.93066c-1.87012 1.85938 -2.92969 4.43945 -2.92969 7.06934s1.05957 5.20996 2.92969 7.07031c1.86035 1.86035 4.43066 2.92969 7.07031 2.92969c2.62988 0 5.20996 -1.07031 7.07031 -2.92969z" />
    <glyph glyph-name="007-spray" unicode="&#xf106;" 
d="M218.666 415.733l-39.4658 -31.5625v-55.6377c4.71191 0 8.5332 -3.82031 8.5332 -8.5332v-30.3535c19.7285 -7.19238 34.1328 -25.4629 34.1328 -72.0459v-273.066c0 -4.71289 -3.82031 -8.5332 -8.5332 -8.5332h-187.733c-4.71191 0 -8.5332 3.82031 -8.5332 8.5332
v170.666c0 40.958 27.5381 77.6543 51.8252 110.029c17.2373 22.9619 33.5078 44.6455 33.5078 60.6377v34.1328c0 4.71289 3.82129 8.5332 8.53418 8.5332v25.6006c0 14.1367 -11.4629 25.5996 -25.6006 25.5996h-1.875l-15.4541 -61.7998
c-0.950195 -3.7959 -4.3584 -6.46289 -8.27051 -6.4668c-0.696289 0 -1.3877 0.0878906 -2.06641 0.253906c-4.57129 1.1416 -7.35059 5.77148 -6.20898 10.3418l14.4209 57.6709h-57.3457c-4.71191 0 -8.5332 3.82129 -8.5332 8.5332v51.2002
c0 4.71191 3.82129 8.5332 8.5332 8.5332h34.1338c0.15332 0 0.307617 0.00878906 0.445312 -0.0419922c0.133789 -0.0537109 0.262695 0 0.408203 0l170.667 -17.0664c3.4502 -0.345703 6.34961 -2.74609 7.33301 -6.0752
c0.983398 -3.3252 -0.145508 -6.91602 -2.85449 -9.08301zM17.0664 430.934v-34.1338h17.0664v34.1338h-17.0664zM204.8 217.601c0 59.7334 -22.4834 59.7334 -59.7334 59.7334h-26.4453c-3.65039 -19.1504 -18.8506 -39.3926 -36.0791 -62.3545
c-22.6875 -30.2334 -48.4092 -64.4961 -48.4092 -99.7793v-162.133h170.667v264.533zM119.467 294.4h51.1992v17.0664h-51.1992v-17.0664zM165.333 394.93l26.3252 21.0625l-140.458 14.0449v-33.2373h34.1328c23.5547 -0.0292969 42.6377 -19.1162 42.667 -42.666v-25.6006
h34.1328v59.7334c0 2.5918 1.17578 5.0459 3.2002 6.66309zM165.333 394.93z" />
    <glyph glyph-name="003-order" unicode="&#xf102;" 
d="M468.442 207.33h-232.184c-24.0186 0 -43.5576 19.54 -43.5576 43.5576c0 24.0186 19.5391 43.5586 43.5576 43.5586h232.184c24.0176 0 43.5576 -19.54 43.5576 -43.5586c0 -24.0176 -19.54 -43.5576 -43.5576 -43.5576zM236.259 274.048
c-12.7705 0 -23.1602 -10.3906 -23.1602 -23.1602c0 -12.7686 10.3906 -23.1592 23.1602 -23.1592h232.184c12.7705 0 23.1592 10.3906 23.1592 23.1592c0 12.7695 -10.3896 23.1602 -23.1592 23.1602h-232.184zM468.442 89.7422h-424.885
c-24.0176 0 -43.5576 19.5391 -43.5576 43.5576c0 24.0176 19.54 43.5576 43.5576 43.5576h424.885c24.0176 0 43.5576 -19.54 43.5576 -43.5576c0 -24.0186 -19.54 -43.5576 -43.5576 -43.5576zM43.5576 156.459c-12.7695 0 -23.1592 -10.3896 -23.1592 -23.1592
s10.3896 -23.1592 23.1592 -23.1592h424.885c12.7705 0 23.1592 10.3896 23.1592 23.1592s-10.3896 23.1592 -23.1592 23.1592h-424.885zM468.442 324.717h-232.184c-24.0186 0 -43.5576 19.54 -43.5576 43.5576c0 24.0186 19.5391 43.5586 43.5576 43.5586h232.184
c24.0176 0 43.5576 -19.541 43.5576 -43.5586c0 -24.0166 -19.54 -43.5576 -43.5576 -43.5576zM236.259 391.435c-12.7705 0 -23.1602 -10.3906 -23.1602 -23.1602c0 -12.7686 10.3906 -23.1592 23.1602 -23.1592h232.184c12.7705 0 23.1592 10.3906 23.1592 23.1592
c0 12.7695 -10.3896 23.1602 -23.1592 23.1602h-232.184zM468.442 -27.8477h-424.885c-24.0176 0 -43.5576 19.5391 -43.5576 43.5576c0 24.0176 19.54 43.5576 43.5576 43.5576h424.885c24.0176 0 43.5576 -19.54 43.5576 -43.5576
c0 -24.0186 -19.54 -43.5576 -43.5576 -43.5576zM43.5576 38.8691c-12.7695 0 -23.1592 -10.3887 -23.1592 -23.1592s10.3896 -23.1592 23.1592 -23.1592h424.885c12.7705 0 23.1592 10.3896 23.1592 23.1592s-10.3896 23.1592 -23.1592 23.1592h-424.885zM316.014 361.795
h-77.9004c-5.63281 0 -10.1992 4.56641 -10.1992 10.1992c0 5.63379 4.56641 10.1992 10.1992 10.1992h77.9004c5.63379 0 10.1992 -4.56543 10.1992 -10.1992c0 -5.63281 -4.56543 -10.1992 -10.1992 -10.1992zM363.551 361.795h-14.1777
c-5.63379 0 -10.1992 4.56641 -10.1992 10.1992c0 5.63379 4.56543 10.1992 10.1992 10.1992h14.1777c5.63281 0 10.1992 -4.56543 10.1992 -10.1992c0 -5.63281 -4.56641 -10.1992 -10.1992 -10.1992zM95.0986 259.529c-5.63281 0 -10.1992 4.56543 -10.1992 10.1992
v131.92c0 5.63281 4.56641 10.1992 10.1992 10.1992s10.1992 -4.56641 10.1992 -10.1992v-131.92c0 -5.63379 -4.56641 -10.1992 -10.1992 -10.1992zM95.0986 207.467c-2.61035 0 -5.22168 0.996094 -7.21191 2.9873l-71.4971 71.4971
c-3.98242 3.98242 -3.98242 10.4404 0 14.4248c3.9834 3.9834 10.4414 3.98242 14.4248 0l64.2852 -64.2852l64.2842 64.2852c3.9834 3.98242 10.4414 3.98242 14.4248 0c3.98438 -3.9834 3.98242 -10.4414 0 -14.4248l-71.4961 -71.4971
c-1.99316 -1.99121 -4.60449 -2.9873 -7.21387 -2.9873z" />
  </font>
</defs></svg>
